sku,store_view_code,attribute_set_code,product_type,categories,product_websites,name,description,short_description,weight,product_online,tax_class_name,visibility,price,special_price,special_price_from_date,special_price_to_date,url_key,meta_title,meta_keywords,meta_description,base_image,base_image_label,small_image,small_image_label,thumbnail_image,thumbnail_image_label,swatch_image,swatch_image_label,created_at,updated_at,new_from_date,new_to_date,display_product_options_in,map_price,msrp_price,map_enabled,gift_message_available,custom_design,custom_design_from,custom_design_to,custom_layout_update,page_layout,product_options_container,msrp_display_actual_price_type,country_of_manufacture,additional_attributes,qty,out_of_stock_qty,use_config_min_qty,is_qty_decimal,allow_backorders,use_config_backorders,min_cart_qty,use_config_min_sale_qty,max_cart_qty,use_config_max_sale_qty,is_in_stock,notify_on_stock_below,use_config_notify_stock_qty,manage_stock,use_config_manage_stock,use_config_qty_increments,qty_increments,use_config_enable_qty_inc,enable_qty_increments,is_decimal_divided,website_id,related_skus,related_position,crosssell_skus,crosssell_position,upsell_skus,upsell_position,additional_images,additional_image_labels,hide_from_product_page,custom_options,bundle_price_type,bundle_sku_type,bundle_price_view,bundle_weight_type,bundle_values,bundle_shipment_type,configurable_variations,configurable_variation_labels,associated_skus
Volumetric Shipping2,,Downloadable,downloadable,"Default Category/Promotions,Default Category/Sale,Default Category/What's New,Default Category,Default Category/Gear,Default Category/Collections,Default Category/Training,Default Category/Men,Default Category/Women,Default Category/Gear/Bags,Default Category/Gear/Fitness Equipment,Default Category/Gear/Watches,Default Category/magento1,Default Category/magento2",base,Volumetric Shipping,"<p style=""margin-top: 0rem; margin-bottom: 1rem; color: #202021; font-family: GraphikRegular; font-size: 16px; font-style: normal; font-variant-ligatures: normal; font-variant-caps: normal; font-weight: normal; letter-spacing: normal; orphans: 2; text-align: start; text-indent: 0px; text-transform: none; white-space: normal; widows: 2; word-spacing: 0px; -webkit-text-stroke-width: 0px; background-color: #ffffff; text-decoration-style: initial; text-decoration-color: initial;"">This extension allows merchants to calculate shipping charges according to the volumetric weight rather than actual weight. Shipping charges can increase due to the<a title=""Users Guide"" href=""{{media url=""wysiwyg/user_guides.pdf""}}"" target=""_blank""> volumetric weight</a>, which is directly related to the amount of space that it occupies. If your package has a large size-to-weight ratio, you may need to consider your package's dimensional weight when calculating your shipping rates. Volumetric weight (Dimensional weight) reflects package density, which is the amount of space a package occupies in relation to its actual weight.</p>
<p style=""margin-top: 0rem; margin-bottom: 1rem; color: #202021; font-family: GraphikRegular; font-size: 16px; font-style: normal; font-variant-ligatures: normal; font-variant-caps: normal; font-weight: normal; letter-spacing: normal; orphans: 2; text-align: start; text-indent: 0px; text-transform: none; white-space: normal; widows: 2; word-spacing: 0px; -webkit-text-stroke-width: 0px; background-color: #ffffff; text-decoration-style: initial; text-decoration-color: initial;"">If you're shipping an item that takes up a lot of space but isn't very heavy, a shipping company might charge you for the item's <a title=""Sunarc Cart"" href=""{{media url=""wysiwyg/user_guides.pdf""}}"" target=""_blank"">dimensional</a> weight instead of its actual weight. A less dense item may occupies more volume of space, in comparison to its actual weight. The volumetric or dimensional weight is calculated by the dimensional width, dimensional height and dimensional length of the consignment and compared with the actual weight of the shipment to ascertain which is greater, the <a title=""Data_found here"" href=""http://10.10.10.7/sunarccart/index.php/admin/cms/wysiwyg/directive/___directive/e3ttZWRpYSB1cmw9Ind5c2l3eWcvZmItbWFya2V0aW5nLXN1bmFyYy5wbmcifX0%2C/key/bf77750fc2b0b4e13766bd102db684ea044398daed1779e52349598275a0cc5b/"" target=""_blank"">higher </a>weight is used to calculate the shipment cost.</p>","<p><span style=""color: #202021; font-family: GraphikRegular; font-size: 16px; font-style: normal; font-variant-ligatures: normal; font-variant-caps: normal; font-weight: normal; letter-spacing: normal; orphans: 2; text-align: start; text-indent: 0px; text-transform: none; white-space: normal; widows: 2; word-spacing: 0px; -webkit-text-stroke-width: 0px; background-color: #ffffff; text-decoration-style: initial; text-decoration-color: initial; display: inline !important; float: none;"">No two magento stores are alike and sometimes extensions already installed on your store may conflict with the extension. If you run into an error we want to help! Please contact us at<span> </span></span><strong style=""font-weight: 600; color: #202021; font-family: GraphikRegular; font-size: 16px; font-style: normal; font-variant-ligatures: normal; font-variant-caps: normal; letter-spacing: normal; orphans: 2; text-align: start; text-indent: 0px; text-transform: none; white-space: normal; widows: 2; word-spacing: 0px; -webkit-text-stroke-width: 0px; background-color: #ffffff; text-decoration-style: initial; text-decoration-color: initial;""><a style=""color: #1a6b70; text-decoration: none;"" href=""mailto:sales@sunarctechnologies.com"">sales@sunarctechnologies.com</a></strong></p>",12340,1,Taxable Goods,"Catalog, Search",29,,,,volumetric-shipping,Volumetric Shipping,Volumetric Shipping,"Volumetric Shipping This extension allows merchants to calculate shipping charges according to the volumetric weight rather than actual weight. Shipping charges can increase due to the volumetric weight, which is directly related to the amount of space th",/v/o/volumetic_1_4.jpg,,/v/o/volumetic_1_4.jpg,,/v/o/volumetic_1_4.jpg,,/v/o/volumetic_1_4.jpg,,"10/31/17, 5:18 AM","11/1/17, 6:07 AM",,,Block after Info Column,,,,Use config,,,,,,,Use config,,"format=Download,pdfs=<p><a title=""Users Guide"" href=""{{media url=""wysiwyg/user_guides.pdf""}}"" target=""_blank""><img src=""{{media url=""wysiwyg/pdf.png""}}"" alt="""" /></a></p>",1000,0,1,0,0,1,1,1,10000,1,1,1,1,1,1,1,1,1,0,0,0,,,,,,,"/v/o/volumetic_1_4.jpg,/v/o/volumetic_7_1.jpg,/v/o/volumetic_6_1.jpg,/v/o/volumetic_5_1.jpg,/v/o/volumetic_4_1.jpg,/v/o/volumetic_3_1.jpg,/v/o/volumetic_2_1.jpg",",,,,,,",,,,,,,,,,,
